Experiments/core/wave.vcd
$date
	Sat Apr 18 10:44:12 2026
$end
$version
	Icarus Verilog
$end
$timescale
	1ps
$end
$scope module tb $end
$scope module stim1 $end
$var wire 1 ! clk $end
$upscope $end
$upscope $end
$scope module tb $end
$var wire 1 " tb_mismatch $end
$upscope $end
$scope module tb $end
$var wire 1 # a $end
$upscope $end
$scope module tb $end
$var wire 1 $ b $end
$upscope $end
$scope module tb $end
$var wire 1 % c $end
$upscope $end
$scope module tb $end
$var wire 1 & out_ref $end
$upscope $end
$scope module tb $end
$var wire 1 ' out_dut $end
$upscope $end
$enddefinitions $end
$comment Show the parameter values. $end
$dumpall
$end
#0
$dumpvars
1'
0&
0%
0$
0#
1"
0!
$end
#5
1!
#10
0!
#15
0"
1&
1%
1!
#20
0!
#25
0'
1"
1&
1$
0%
1!
#30
0!
#35
1%
1!
#40
0!
#45
0"
1'
1#
0$
0%
1!
#50
0!
#55
1%
1!
#60
0!
#65
1$
0%
1!
#70
0!
#75
1%
1!
#80
0!
#85
1"
0&
0#
0$
0%
1!
#90
0!
#95
0"
1&
1%
1!
#100
0!
#105
0%
1#
1!
#110
0!
#115
1$
1!
#120
1%
0$
0!
#125
1!
#130
0!
#135
1"
0'
0%
1$
0#
1!
#140
0"
1'
0$
1#
0!
#145
1%
1!
#150
1"
0'
1$
0#
0!
#155
0"
1'
0$
1#
1!
#160
0!
#165
0#
1!
#170
0%
1#
0!
#175
1"
0'
1%
1$
0#
1!
#180
0"
1'
0$
1#
0!
#185
1"
0'
0%
1$
0#
1!
#190
0"
1'
1%
0$
1#
0!
#195
1$
1!
#200
1"
0'
0%
0#
0!
#205
0"
1'
1%
1#
1!
#210
1"
0'
0%
0#
0!
#215
1%
1!
#220
1"
1'
0&
0%
0$
0!
#225
0"
1&
1%
1#
1!
#230
0#
0!
#235
1#
1!
#240
0!
#245
1!
#250
0%
1$
0!
#255
1"
0'
0#
1!
#260
1"
1'
0&
0$
0!
#265
1!
#270
1"
0'
1&
1$
0!
#275
0"
1'
1%
0$
1#
1!
#280
1"
0'
1$
0#
0!
#285
0"
1'
0%
1#
1!
#290
1%
0$
0!
#295
0%
1$
1!
#300
0!
#305
1%
0$
1!
#310
1"
0'
0%
1$
0#
0!
#315
1%
1!
#320
0"
1'
0$
1#
0!
#325
1$
1!
#330
0%
0!
#335
1"
0'
0#
1!
#340
0!
#345
0"
1'
1%
0$
1!
#350
1"
0'
0%
1$
0!
#355
1!
#360
0"
1'
0$
1#
0!
#365
1"
0&
0#
1!
#370
0!
#375
0"
1&
1#
1!
#380
1$
0!
#385
1"
0'
1%
0#
1!
#390
0!
#395
1!
#400
0"
1'
0$
0!
#405
1"
0'
0%
1$
1!
#410
0"
1'
1#
0!
#415
0$
1!
#420
1%
0!
#425
1$
1!
#430
0%
0!
#435
1"
0'
0#
1!
#440
1%
0!
#445
0"
1'
0$
1#
1!
#450
0%
0!
#455
1!
#460
1"
0'
1$
0#
0!
#465
0"
1'
1%
0$
1!
#470
1$
1#
0!
#475
1!
#480
1"
0&
1'
0%
0$
0#
0!
#485
0"
1&
1%
1$
1#
1!
#490
0!
#495
0"
1'
0$
0#
1!
#500
0%
1$
1#
0!
#505
0$
1!
#510
0!
#515
1"
0&
0#
1!
#520
0"
1&
1%
1$
1#
0!
#525
0%
0$
1!
#530
1"
0'
1%
1$
0#
0!
#535
0"
1'
0$
1!
#540
1"
0'
0%
1$
0!
#545
1"
1'
0&
0$
1!
#550
0"
1&
1%
1$
1#
0!
#555
0$
1!
#560
1"
0'
0%
1$
0#
0!
#565
1%
1!
#570
0"
1'
0$
1#
0!
#575
0%
1!
#580
1%
1$
0!
#585
0%
1!
#590
1%
0$
0!
#595
1"
0&
0%
0#
1!
#600
0"
1&
1$
1#
0!
#605
0$
1!
#610
1%
1$
0!
#615
1"
0'
0%
0#
1!
#620
1"
1'
0&
0$
0!
#625
1"
0'
1&
1%
1$
1!
#630
0!
#635
0"
1'
0$
1!
#640
1"
0'
0%
1$
0!
#645
1%
1!
#650
0"
1'
0%
1#
0!
#655
1!
#660
1%
0!
#665
0%
1!
#670
1%
0!
#675
0"
1'
0$
0#
1!
#680
1$
1#
0!
#685
0%
1!
#690
1"
0'
1%
0#
0!
#695
0%
1!
#700
0"
1'
0$
1#
0!
#705
1%
1!
#710
1"
0'
0%
1$
0#
0!
#715
0"
1'
1%
0$
1#
1!
#720
0!
#725
1$
1!
#730
0%
0$
0!
#735
1%
0#
1!
#740
1"
0&
0%
0!
#745
1"
0'
1&
1$
1!
#750
0"
1'
1#
0!
#755
1"
0'
1%
0#
1!
#760
0"
1'
0$
0!
#765
1"
0'
0%
1$
1!
#770
0"
1'
1%
0$
1#
0!
#775
0%
1$
1!
#780
1"
0'
1%
0#
0!
#785
1!
#790
0"
1'
1#
0!
#795
1"
0'
0%
0#
1!
#800
1%
0!
#805
1"
1'
0&
0%
0$
1!
#810
0"
1&
1#
0!
#815
1"
0&
0#
1!
#820
0"
1&
1%
0!
#825
0%
1$
1#
1!
#830
0"
1'
1%
0$
0#
0!
#835
0%
1#
1!
#840
1$
0!
#845
1%
0$
1!
#850
0%
0!
#855
1%
1!
#860
1"
0'
1$
0#
0!
#865
0%
1!
#870
1%
0!
#875
0"
1'
0$
1#
1!
#880
1"
0'
1$
0#
0!
#885
0"
1'
0$
1!
#890
1$
1#
0!
#895
0%
0$
1!
#900
1%
0#
0!
#905
1"
0&
0%
1!
#910
0!
#915
0"
1&
1%
1#
1!
#920
1$
0!
#925
1"
0'
0#
1!
#930
1"
1'
0&
0%
0$
0!
#935
0"
1&
1%
1!
#940
1#
0!
#945
0%
1!
#950
1%
0#
0!
#955
1"
0'
1$
1!
#960
0%
0!
#965
0"
1'
1%
0$
1#
1!
#970
1"
0'
1$
0#
0!
#975
1"
1'
0&
0%
0$
1!
#980
0"
1&
1$
1#
0!
#985
1"
0'
0#
1!
#990
1%
0!
#995
0%
1!
#1000
0"
1'
1%
0$
1#
0!
#1005
1"
0'
0%
1$
0#
1!
#1010
0"
1'
0$
1#
0!
#1015
1%
1$
1!
#1020
1"
0'
0#
0!
#1025
1"
1'
0&
0%
0$
1!
#1030
1"
0'
1&
1%
1$
0!
#1035
1!
#1040
0"
1'
0$
1#
0!
#1045
0#
1!
#1050
1"
0'
1$
0!
#1055
1"
1'
0&
0%
0$
1!
#1060
1"
0'
1&
1%
1$
0!
#1065
0"
1'
0%
1#
1!
#1070
1%
0!
#1075
0%
0$
1!
#1080
1"
0'
1$
0#
0!
#1085
0"
1'
0$
1#
1!
#1090
1%
1$
0!
#1095
0%
0$
1!
